{
  "pry": {
    "说明": "断点调试(binding)"
  },
  "rest-client": {
    "说明": "Http请求"
  },
  "json": {
    "说明": "JSON处理"
  },
  "ruby-pinyin": {
    "说明": "文字转拼音"
  },
  "nokogiri": {
    "版本": "1.15.4",
    "说明": "Html文本解析"
  },
  "fileutils": {
    "说明": "文件系统工具"
  },
  "uri": {
    "说明": "uri"
  },
  "base64": {
    "说明": "base64"
  },
  "cgi": {
    "说明": "CGI接口实现,主要用于链接内容转义"
  }
}